module gitlab.com/gsora/c3d

go 1.13

require (
	github.com/PuerkitoBio/goquery v1.5.0
	github.com/andybalholm/cascadia v1.1.0 // indirect
	golang.org/x/net v0.0.0-20191209160850-c0dbc17a3553 // indirect
)
